22

2
-1
9
1
-1
10

7
9
-1
4
10
4
6
-4
7
10

6
9
4
1
2
-5
-2
-3
-1
6

3
4
9
-3
4
7
-2
-3
-1
-1
7

3
8
1
7
-3
5
4
1
8
-7
-2
-2
-1
-2
4

1
1
6
1
-4
2
7
6
1
-2
-4
-3
-1
1

2
7
8
3
-1
-2
-1
-1
10
3
5

10
8
6
10
-4
3
6
-1
-2
-2
-2
-1
9
3
1
3

4
1
10
10
-2
9
3
2

8
1
-1
-1
9
10
1
7
6
2

6
9
10
3
5
-4
7
9
1

9
2
1
1
-4
-1
-1
4
9
5
9
9

1
8
5
2
4
10
-6
-2
2
2
7
4

8
1
-2
6
2
4
-3
-1
3
5
10
9

1
3
1
1
-3
-1
4
1
4

3
10
2
5
1
4
2

10
5
-1
3
10
6
2
8
4

8
2
-1
-1
3
3
1
7

5
10
-2
-1
7
1
7
4

5
9
6
9
-2
-2
8
4
8
-5
-4
-1
-1
5
3

4
5
4
10
-2
-2
9
10
-4
-2
-2
-1
6
2

6
6
3
3
-1
-2
3
3
-1
10
9
